18 atomicd0
free
C    24.283430   14.999974    1.336109
C    19.606224   14.999979    1.326638
C    28.961906   14.999975    1.326510
C    15.119092   15.000068    1.167809
C    33.447121   15.000059    1.167802
C    21.952538   14.999974    2.651346
C    26.615573   14.999973    2.651207
C    17.267466   15.000002    2.670635
C    31.298860   14.999997    2.670781
C    21.952540   14.999974    5.308698
C    26.615572   14.999973    5.308833
C    17.267473   15.000002    5.289363
C    31.298855   14.999996    5.289214
C    24.283430   14.999974    6.623939
C    19.606223   14.999980    6.633387
C    28.961907   14.999974    6.633510
C    15.119056   15.000068    6.792121
C    33.447160   15.000059    6.792123
